{
	"items": [
		{
			"availableLanguages": [
				"en-US"
			],
			"creator": {
				"familyName": "Admin",
				"givenName": "Synergy",
				"id": 20139,
				"name": "Synergy Admin"
			},
			"dateCreated": "2019-07-05T21:50:29Z",
			"dateModified": "2019-07-27T02:11:45Z",
			"description": "Barco",
			"id": 80342,
			"name": "Barco",
			"numberOfTaxonomyCategories": 0,
			"parentTaxonomyVocabulary": {
				"id": 80281,
				"name": "Brands"
			}
		}
	],
	"lastPage": 2,
	"page": 1,
	"pageSize": 1,
	"totalCount": 2
}